<?xml version="1.0" encoding="iso-8859-1"?>
<!-- Generator: Adobe Illustrator 19.0.0, SVG Export Plug-In . SVG Version: 6.00 Build 0)  -->
<svg version="1.1" id="Layer_1" xmlns="http://www.w3.org/2000/svg" xmlns:xlink="http://www.w3.org/1999/xlink" x="0px" y="0px"
	 viewBox="0 0 512 512" style="enable-background:new 0 0 512 512;" xml:space="preserve">
<path style="fill:#A0F6FA;" d="M423.351,78.094h-33.758l23.946,293.787h39.385V107.678
	C452.923,91.372,439.656,78.094,423.351,78.094z"/>
<path style="fill:#D0FBFD;" d="M413.538,107.678c0-13.211-10.746-23.957-23.946-23.957v-5.626H122.407v5.626
	c-0.155,0-0.306,0.02-0.46,0.024l0.46-5.65H88.649c-16.305,0-29.572,13.278-29.572,29.583v264.203h39.385h315.077V107.678z"/>
<path style="fill:#111449;" d="M423.346,66.846H88.654c-22.513,0-40.829,18.316-40.829,52.082v247.321h16.879v-11.247l5.626-11.935
	l-5.626-11.935V107.675c0-13.206,10.744-23.95,23.95-23.95h334.694c13.206,0,23.95,10.744,23.95,23.95v258.574h16.879V107.675
	C464.176,85.162,445.86,66.846,423.346,66.846z"/>
<polygon style="fill:#27467A;" points="464.176,355.002 512,445.024 455.736,456.276 430.418,355.002 "/>
<polygon style="fill:#2F5E88;" points="478.242,445.024 430.418,355.002 47.824,355.002 0,445.024 256,478.782 "/>
<g>
	<path style="fill:#111449;" d="M281.394,419.699h-50.637c-4.661,0-8.44-3.779-8.44-8.44s3.779-8.44,8.44-8.44h50.637
		c4.661,0,8.44,3.779,8.44,8.44S286.055,419.699,281.394,419.699z"/>
	<path style="fill:#111449;" d="M478.242,445.024l-33.758,50.637h33.758c18.567,0,33.758-15.191,33.758-33.758v-16.879H478.242z"/>
</g>
<path style="fill:#27467A;" d="M33.758,445.024H0v16.879c0,18.567,15.191,33.758,33.758,33.758h33.758h376.967
	c18.567,0,33.758-15.191,33.758-33.758v-16.879H33.758z"/>
<path style="fill:#FF4719;" d="M503.56,16.339h-45.011c-4.659,0-8.44,3.77-8.44,8.44c0,4.659,3.781,8.44,8.44,8.44h24.632
	L307.853,208.547l-54.317-54.317c-3.297-3.297-8.642-3.297-11.928,0L64.703,331.135v23.867l182.868-182.868l54.317,54.317
	c3.297,3.297,8.631,3.297,11.928,0L495.121,45.146V69.79c0,4.659,3.781,8.44,8.44,8.44s8.44-3.781,8.44-8.44V24.779
	C512,20.109,508.219,16.339,503.56,16.339z"/>
<g>
</g>
<g>
</g>
<g>
</g>
<g>
</g>
<g>
</g>
<g>
</g>
<g>
</g>
<g>
</g>
<g>
</g>
<g>
</g>
<g>
</g>
<g>
</g>
<g>
</g>
<g>
</g>
<g>
</g>
</svg>
